info face="ComicSansMS" size=32 bold=0 italic=0 charset="" unicode=0 stretchH=100 smooth=1 aa=1 padding=1,1,1,1 spacing=-2,-2
common lineHeight=46 base=36 scaleW=512 scaleH=512 pages=1 packed=0
page id=0 file="12_regular.png"
chars count=96
char id=10      x=0    y=0    width=0    height=0    xoffset=-1   yoffset=0    xadvance=0    page=0    chnl=0 
char id=32      x=0    y=0    width=0    height=0    xoffset=-1   yoffset=0    xadvance=10   page=0    chnl=0 
char id=33      x=223  y=0    width=7    height=30   xoffset=0    yoffset=9    xadvance=8    page=0    chnl=0 
char id=34      x=50   y=92   width=12   height=13   xoffset=0    yoffset=10   xadvance=14   page=0    chnl=0 
char id=35      x=434  y=36   width=29   height=28   xoffset=-1   yoffset=10   xadvance=27   page=0    chnl=0 
char id=36      x=14   y=0    width=21   height=36   xoffset=0    yoffset=8    xadvance=22   page=0    chnl=0 
char id=37      x=474  y=0    width=26   height=29   xoffset=1    yoffset=9    xadvance=26   page=0    chnl=0 
char id=38      x=0    y=36   width=21   height=29   xoffset=0    yoffset=10   xadvance=21   page=0    chnl=0 
char id=39      x=503  y=65   width=6    height=11   xoffset=3    yoffset=9    xadvance=12   page=0    chnl=0 
char id=40      x=35   y=0    width=12   height=35   xoffset=0    yoffset=9    xadvance=12   page=0    chnl=0 
char id=41      x=47   y=0    width=12   height=35   xoffset=0    yoffset=9    xadvance=12   page=0    chnl=0 
char id=42      x=17   y=92   width=18   height=15   xoffset=-1   yoffset=10   xadvance=17   page=0    chnl=0 
char id=43      x=0    y=92   width=17   height=16   xoffset=-1   yoffset=18   xadvance=15   page=0    chnl=0 
char id=44      x=62   y=92   width=7    height=11   xoffset=2    yoffset=32   xadvance=9    page=0    chnl=0 
char id=45      x=144  y=92   width=13   height=5    xoffset=0    yoffset=25   xadvance=13   page=0    chnl=0 
char id=46      x=113  y=92   width=7    height=7    xoffset=1    yoffset=32   xadvance=8    page=0    chnl=0 
char id=47      x=230  y=0    width=17   height=30   xoffset=0    yoffset=9    xadvance=16   page=0    chnl=0 
char id=48      x=395  y=36   width=21   height=28   xoffset=-1   yoffset=10   xadvance=20   page=0    chnl=0 
char id=49      x=301  y=36   width=13   height=28   xoffset=1    yoffset=10   xadvance=14   page=0    chnl=0 
char id=50      x=131  y=65   width=18   height=27   xoffset=1    yoffset=11   xadvance=20   page=0    chnl=0 
char id=51      x=149  y=65   width=17   height=27   xoffset=1    yoffset=11   xadvance=20   page=0    chnl=0 
char id=52      x=314  y=36   width=21   height=28   xoffset=-1   yoffset=10   xadvance=20   page=0    chnl=0 
char id=53      x=335  y=36   width=20   height=28   xoffset=0    yoffset=10   xadvance=20   page=0    chnl=0 
char id=54      x=439  y=0    width=19   height=29   xoffset=0    yoffset=10   xadvance=20   page=0    chnl=0 
char id=55      x=355  y=36   width=20   height=28   xoffset=0    yoffset=11   xadvance=20   page=0    chnl=0 
char id=56      x=166  y=65   width=19   height=27   xoffset=0    yoffset=11   xadvance=20   page=0    chnl=0 
char id=57      x=375  y=36   width=20   height=28   xoffset=0    yoffset=11   xadvance=20   page=0    chnl=0 
char id=58      x=470  y=65   width=7    height=19   xoffset=1    yoffset=17   xadvance=10   page=0    chnl=0 
char id=59      x=222  y=65   width=8    height=24   xoffset=0    yoffset=17   xadvance=10   page=0    chnl=0 
char id=60      x=491  y=65   width=12   height=16   xoffset=-1   yoffset=18   xadvance=12   page=0    chnl=0 
char id=61      x=35   y=92   width=15   height=14   xoffset=0    yoffset=19   xadvance=16   page=0    chnl=0 
char id=62      x=477  y=65   width=14   height=18   xoffset=-1   yoffset=17   xadvance=12   page=0    chnl=0 
char id=63      x=416  y=36   width=18   height=28   xoffset=-1   yoffset=11   xadvance=17   page=0    chnl=0 
char id=64      x=142  y=0    width=29   height=31   xoffset=0    yoffset=9    xadvance=30   page=0    chnl=0 
char id=65      x=463  y=36   width=22   height=27   xoffset=1    yoffset=11   xadvance=23   page=0    chnl=0 
char id=66      x=21   y=36   width=19   height=28   xoffset=1    yoffset=10   xadvance=20   page=0    chnl=0 
char id=67      x=485  y=36   width=20   height=27   xoffset=0    yoffset=11   xadvance=19   page=0    chnl=0 
char id=68      x=247  y=0    width=22   height=29   xoffset=1    yoffset=10   xadvance=23   page=0    chnl=0 
char id=69      x=171  y=0    width=19   height=30   xoffset=1    yoffset=9    xadvance=20   page=0    chnl=0 
char id=70      x=269  y=0    width=19   height=29   xoffset=1    yoffset=10   xadvance=19   page=0    chnl=0 
char id=71      x=288  y=0    width=23   height=29   xoffset=0    yoffset=10   xadvance=22   page=0    chnl=0 
char id=72      x=311  y=0    width=23   height=29   xoffset=1    yoffset=10   xadvance=25   page=0    chnl=0 
char id=73      x=0    y=65   width=18   height=27   xoffset=0    yoffset=11   xadvance=17   page=0    chnl=0 
char id=74      x=40   y=36   width=22   height=28   xoffset=0    yoffset=11   xadvance=21   page=0    chnl=0 
char id=75      x=62   y=36   width=19   height=28   xoffset=2    yoffset=11   xadvance=20   page=0    chnl=0 
char id=76      x=334  y=0    width=19   height=29   xoffset=0    yoffset=10   xadvance=18   page=0    chnl=0 
char id=77      x=81   y=36   width=29   height=28   xoffset=0    yoffset=11   xadvance=28   page=0    chnl=0 
char id=78      x=353  y=0    width=26   height=29   xoffset=0    yoffset=10   xadvance=26   page=0    chnl=0 
char id=79      x=18   y=65   width=26   height=27   xoffset=0    yoffset=11   xadvance=26   page=0    chnl=0 
char id=80      x=110  y=36   width=17   height=28   xoffset=0    yoffset=10   xadvance=17   page=0    chnl=0 
char id=81      x=91   y=0    width=29   height=33   xoffset=0    yoffset=11   xadvance=28   page=0    chnl=0 
char id=82      x=127  y=36   width=21   height=28   xoffset=0    yoffset=10   xadvance=20   page=0    chnl=0 
char id=83      x=185  y=65   width=21   height=26   xoffset=1    yoffset=12   xadvance=22   page=0    chnl=0 
char id=84      x=44   y=65   width=24   height=27   xoffset=0    yoffset=11   xadvance=22   page=0    chnl=0 
char id=85      x=68   y=65   width=22   height=27   xoffset=1    yoffset=11   xadvance=24   page=0    chnl=0 
char id=86      x=148  y=36   width=21   height=28   xoffset=1    yoffset=11   xadvance=21   page=0    chnl=0 
char id=87      x=169  y=36   width=33   height=28   xoffset=1    yoffset=11   xadvance=33   page=0    chnl=0 
char id=88      x=202  y=36   width=23   height=28   xoffset=0    yoffset=11   xadvance=23   page=0    chnl=0 
char id=89      x=225  y=36   width=22   height=28   xoffset=-1   yoffset=11   xadvance=20   page=0    chnl=0 
char id=90      x=90   y=65   width=23   height=27   xoffset=0    yoffset=11   xadvance=22   page=0    chnl=0 
char id=91      x=120  y=0    width=11   height=33   xoffset=1    yoffset=11   xadvance=12   page=0    chnl=0 
char id=92      x=458  y=0    width=16   height=29   xoffset=1    yoffset=11   xadvance=18   page=0    chnl=0 
char id=93      x=131  y=0    width=11   height=33   xoffset=1    yoffset=11   xadvance=12   page=0    chnl=0 
char id=94      x=69   y=92   width=15   height=11   xoffset=2    yoffset=9    xadvance=19   page=0    chnl=0 
char id=95      x=120  y=92   width=24   height=6    xoffset=-2   yoffset=37   xadvance=20   page=0    chnl=0 
char id=96      x=84   y=92   width=10   height=10   xoffset=1    yoffset=9    xadvance=18   page=0    chnl=0 
char id=97      x=272  y=65   width=18   height=21   xoffset=-1   yoffset=18   xadvance=16   page=0    chnl=0 
char id=98      x=247  y=36   width=18   height=28   xoffset=1    yoffset=10   xadvance=19   page=0    chnl=0 
char id=99      x=400  y=65   width=17   height=20   xoffset=0    yoffset=18   xadvance=16   page=0    chnl=0 
char id=100     x=265  y=36   width=19   height=28   xoffset=0    yoffset=10   xadvance=19   page=0    chnl=0 
char id=101     x=417  y=65   width=18   height=20   xoffset=0    yoffset=18   xadvance=18   page=0    chnl=0 
char id=102     x=190  y=0    width=16   height=30   xoffset=0    yoffset=10   xadvance=16   page=0    chnl=0 
char id=103     x=113  y=65   width=18   height=27   xoffset=-1   yoffset=19   xadvance=17   page=0    chnl=0 
char id=104     x=379  y=0    width=17   height=29   xoffset=1    yoffset=9    xadvance=18   page=0    chnl=0 
char id=105     x=500  y=0    width=7    height=27   xoffset=1    yoffset=11   xadvance=9    page=0    chnl=0 
char id=106     x=0    y=0    width=14   height=36   xoffset=-2   yoffset=11   xadvance=13   page=0    chnl=0 
char id=107     x=396  y=0    width=17   height=29   xoffset=1    yoffset=9    xadvance=17   page=0    chnl=0 
char id=108     x=413  y=0    width=7    height=29   xoffset=1    yoffset=9    xadvance=9    page=0    chnl=0 
char id=109     x=230  y=65   width=25   height=22   xoffset=0    yoffset=17   xadvance=25   page=0    chnl=0 
char id=110     x=255  y=65   width=17   height=22   xoffset=0    yoffset=17   xadvance=17   page=0    chnl=0 
char id=111     x=435  y=65   width=17   height=20   xoffset=0    yoffset=18   xadvance=17   page=0    chnl=0 
char id=112     x=206  y=0    width=17   height=30   xoffset=0    yoffset=17   xadvance=17   page=0    chnl=0 
char id=113     x=284  y=36   width=17   height=28   xoffset=-1   yoffset=18   xadvance=17   page=0    chnl=0 
char id=114     x=290  y=65   width=15   height=21   xoffset=1    yoffset=18   xadvance=15   page=0    chnl=0 
char id=115     x=305  y=65   width=17   height=21   xoffset=-1   yoffset=17   xadvance=16   page=0    chnl=0 
char id=116     x=206  y=65   width=16   height=25   xoffset=0    yoffset=13   xadvance=15   page=0    chnl=0 
char id=117     x=322  y=65   width=17   height=21   xoffset=0    yoffset=18   xadvance=17   page=0    chnl=0 
char id=118     x=452  y=65   width=18   height=20   xoffset=-1   yoffset=18   xadvance=16   page=0    chnl=0 
char id=119     x=339  y=65   width=23   height=21   xoffset=0    yoffset=18   xadvance=22   page=0    chnl=0 
char id=120     x=362  y=65   width=20   height=21   xoffset=-1   yoffset=17   xadvance=19   page=0    chnl=0 
char id=121     x=420  y=0    width=19   height=29   xoffset=-2   yoffset=18   xadvance=17   page=0    chnl=0 
char id=122     x=382  y=65   width=18   height=21   xoffset=0    yoffset=18   xadvance=17   page=0    chnl=0 
char id=123     x=65   y=0    width=13   height=34   xoffset=-1   yoffset=9    xadvance=12   page=0    chnl=0 
char id=124     x=59   y=0    width=6    height=35   xoffset=4    yoffset=8    xadvance=13   page=0    chnl=0 
char id=125     x=78   y=0    width=13   height=34   xoffset=-1   yoffset=9    xadvance=12   page=0    chnl=0 
char id=126     x=94   y=92   width=19   height=10   xoffset=0    yoffset=20   xadvance=19   page=0    chnl=0 
