info face="TimesNewRomanPS-BoldMT" size=20 bold=1 italic=0 charset="" unicode=0 stretchH=100 smooth=1 aa=1 padding=1,1,1,1 spacing=-2,-2
common lineHeight=24 base=18 scaleW=512 scaleH=512 pages=1 packed=0
page id=0 file="NewTimesRoman_Bold_20.png"
chars count=96
char id=10      x=0    y=0    width=0    height=0    xoffset=-1   yoffset=0    xadvance=0    page=0    chnl=0 
char id=32      x=0    y=0    width=0    height=0    xoffset=-1   yoffset=0    xadvance=5    page=0    chnl=0 
char id=33      x=417  y=0    width=6    height=17   xoffset=0    yoffset=3    xadvance=7    page=0    chnl=0 
char id=34      x=75   y=37   width=11   height=9    xoffset=0    yoffset=3    xadvance=11   page=0    chnl=0 
char id=35      x=469  y=0    width=12   height=17   xoffset=-1   yoffset=3    xadvance=10   page=0    chnl=0 
char id=36      x=99   y=0    width=12   height=18   xoffset=-1   yoffset=3    xadvance=10   page=0    chnl=0 
char id=37      x=449  y=0    width=20   height=17   xoffset=0    yoffset=3    xadvance=20   page=0    chnl=0 
char id=38      x=481  y=0    width=18   height=17   xoffset=-1   yoffset=3    xadvance=17   page=0    chnl=0 
char id=39      x=86   y=37   width=6    height=9    xoffset=0    yoffset=3    xadvance=6    page=0    chnl=0 
char id=40      x=8    y=0    width=9    height=21   xoffset=-1   yoffset=3    xadvance=7    page=0    chnl=0 
char id=41      x=17   y=0    width=8    height=21   xoffset=-1   yoffset=3    xadvance=7    page=0    chnl=0 
char id=42      x=53   y=37   width=10   height=11   xoffset=0    yoffset=3    xadvance=10   page=0    chnl=0 
char id=43      x=481  y=21   width=14   height=13   xoffset=-1   yoffset=5    xadvance=11   page=0    chnl=0 
char id=44      x=92   y=37   width=7    height=9    xoffset=-1   yoffset=14   xadvance=5    page=0    chnl=0 
char id=45      x=140  y=37   width=9    height=5    xoffset=-1   yoffset=11   xadvance=7    page=0    chnl=0 
char id=46      x=99   y=37   width=7    height=7    xoffset=-1   yoffset=13   xadvance=5    page=0    chnl=0 
char id=47      x=433  y=0    width=8    height=17   xoffset=-1   yoffset=3    xadvance=6    page=0    chnl=0 
char id=48      x=405  y=0    width=12   height=17   xoffset=-1   yoffset=3    xadvance=10   page=0    chnl=0 
char id=49      x=308  y=21   width=10   height=16   xoffset=0    yoffset=3    xadvance=10   page=0    chnl=0 
char id=50      x=318  y=21   width=12   height=16   xoffset=-1   yoffset=3    xadvance=10   page=0    chnl=0 
char id=51      x=334  y=0    width=11   height=17   xoffset=-1   yoffset=3    xadvance=10   page=0    chnl=0 
char id=52      x=330  y=21   width=12   height=16   xoffset=-1   yoffset=3    xadvance=10   page=0    chnl=0 
char id=53      x=345  y=0    width=12   height=17   xoffset=-1   yoffset=3    xadvance=10   page=0    chnl=0 
char id=54      x=357  y=0    width=12   height=17   xoffset=-1   yoffset=3    xadvance=10   page=0    chnl=0 
char id=55      x=369  y=0    width=12   height=17   xoffset=-1   yoffset=3    xadvance=10   page=0    chnl=0 
char id=56      x=381  y=0    width=12   height=17   xoffset=-1   yoffset=3    xadvance=10   page=0    chnl=0 
char id=57      x=393  y=0    width=12   height=17   xoffset=-1   yoffset=3    xadvance=10   page=0    chnl=0 
char id=58      x=447  y=21   width=6    height=13   xoffset=0    yoffset=7    xadvance=7    page=0    chnl=0 
char id=59      x=342  y=21   width=7    height=16   xoffset=0    yoffset=7    xadvance=7    page=0    chnl=0 
char id=60      x=453  y=21   width=14   height=13   xoffset=-1   yoffset=5    xadvance=11   page=0    chnl=0 
char id=61      x=106  y=37   width=14   height=7    xoffset=-1   yoffset=8    xadvance=11   page=0    chnl=0 
char id=62      x=467  y=21   width=14   height=13   xoffset=-1   yoffset=5    xadvance=11   page=0    chnl=0 
char id=63      x=423  y=0    width=10   height=17   xoffset=0    yoffset=3    xadvance=10   page=0    chnl=0 
char id=64      x=47   y=0    width=21   height=21   xoffset=-1   yoffset=3    xadvance=19   page=0    chnl=0 
char id=65      x=0    y=21   width=17   height=16   xoffset=-1   yoffset=3    xadvance=14   page=0    chnl=0 
char id=66      x=17   y=21   width=15   height=16   xoffset=-1   yoffset=3    xadvance=13   page=0    chnl=0 
char id=67      x=111  y=0    width=16   height=17   xoffset=-1   yoffset=3    xadvance=14   page=0    chnl=0 
char id=68      x=32   y=21   width=16   height=16   xoffset=-1   yoffset=3    xadvance=14   page=0    chnl=0 
char id=69      x=48   y=21   width=15   height=16   xoffset=-1   yoffset=3    xadvance=13   page=0    chnl=0 
char id=70      x=63   y=21   width=14   height=16   xoffset=-1   yoffset=3    xadvance=12   page=0    chnl=0 
char id=71      x=127  y=0    width=18   height=17   xoffset=-1   yoffset=3    xadvance=16   page=0    chnl=0 
char id=72      x=77   y=21   width=18   height=16   xoffset=-1   yoffset=3    xadvance=16   page=0    chnl=0 
char id=73      x=499  y=0    width=10   height=16   xoffset=-1   yoffset=3    xadvance=8    page=0    chnl=0 
char id=74      x=145  y=0    width=12   height=17   xoffset=-1   yoffset=3    xadvance=10   page=0    chnl=0 
char id=75      x=95   y=21   width=18   height=16   xoffset=-1   yoffset=3    xadvance=16   page=0    chnl=0 
char id=76      x=113  y=21   width=15   height=16   xoffset=-1   yoffset=3    xadvance=13   page=0    chnl=0 
char id=77      x=128  y=21   width=21   height=16   xoffset=-1   yoffset=3    xadvance=19   page=0    chnl=0 
char id=78      x=157  y=0    width=16   height=17   xoffset=-1   yoffset=3    xadvance=14   page=0    chnl=0 
char id=79      x=173  y=0    width=17   height=17   xoffset=-1   yoffset=3    xadvance=16   page=0    chnl=0 
char id=80      x=149  y=21   width=14   height=16   xoffset=-1   yoffset=3    xadvance=12   page=0    chnl=0 
char id=81      x=68   y=0    width=17   height=20   xoffset=-1   yoffset=3    xadvance=16   page=0    chnl=0 
char id=82      x=163  y=21   width=17   height=16   xoffset=-1   yoffset=3    xadvance=14   page=0    chnl=0 
char id=83      x=190  y=0    width=12   height=17   xoffset=0    yoffset=3    xadvance=11   page=0    chnl=0 
char id=84      x=180  y=21   width=15   height=16   xoffset=-1   yoffset=3    xadvance=13   page=0    chnl=0 
char id=85      x=202  y=0    width=17   height=17   xoffset=-1   yoffset=3    xadvance=14   page=0    chnl=0 
char id=86      x=219  y=0    width=17   height=17   xoffset=-1   yoffset=3    xadvance=14   page=0    chnl=0 
char id=87      x=236  y=0    width=22   height=17   xoffset=-1   yoffset=3    xadvance=20   page=0    chnl=0 
char id=88      x=195  y=21   width=17   height=16   xoffset=-1   yoffset=3    xadvance=14   page=0    chnl=0 
char id=89      x=212  y=21   width=17   height=16   xoffset=-1   yoffset=3    xadvance=14   page=0    chnl=0 
char id=90      x=229  y=21   width=15   height=16   xoffset=-1   yoffset=3    xadvance=13   page=0    chnl=0 
char id=91      x=85   y=0    width=7    height=20   xoffset=1    yoffset=3    xadvance=7    page=0    chnl=0 
char id=92      x=441  y=0    width=8    height=17   xoffset=-1   yoffset=3    xadvance=6    page=0    chnl=0 
char id=93      x=92   y=0    width=7    height=20   xoffset=-1   yoffset=3    xadvance=7    page=0    chnl=0 
char id=94      x=63   y=37   width=12   height=10   xoffset=0    yoffset=3    xadvance=12   page=0    chnl=0 
char id=95      x=149  y=37   width=14   height=4    xoffset=-2   yoffset=20   xadvance=10   page=0    chnl=0 
char id=96      x=120  y=37   width=7    height=6    xoffset=-1   yoffset=3    xadvance=7    page=0    chnl=0 
char id=97      x=349  y=21   width=12   height=13   xoffset=-1   yoffset=7    xadvance=10   page=0    chnl=0 
char id=98      x=258  y=0    width=13   height=17   xoffset=-1   yoffset=3    xadvance=11   page=0    chnl=0 
char id=99      x=361  y=21   width=11   height=13   xoffset=-1   yoffset=7    xadvance=9    page=0    chnl=0 
char id=100     x=271  y=0    width=13   height=17   xoffset=-1   yoffset=3    xadvance=11   page=0    chnl=0 
char id=101     x=372  y=21   width=11   height=13   xoffset=-1   yoffset=7    xadvance=9    page=0    chnl=0 
char id=102     x=244  y=21   width=12   height=16   xoffset=-1   yoffset=3    xadvance=7    page=0    chnl=0 
char id=103     x=284  y=0    width=12   height=17   xoffset=-1   yoffset=7    xadvance=10   page=0    chnl=0 
char id=104     x=256  y=21   width=13   height=16   xoffset=-1   yoffset=3    xadvance=11   page=0    chnl=0 
char id=105     x=269  y=21   width=8    height=16   xoffset=-1   yoffset=3    xadvance=6    page=0    chnl=0 
char id=106     x=0    y=0    width=8    height=21   xoffset=-2   yoffset=3    xadvance=7    page=0    chnl=0 
char id=107     x=277  y=21   width=14   height=16   xoffset=-1   yoffset=3    xadvance=11   page=0    chnl=0 
char id=108     x=291  y=21   width=8    height=16   xoffset=-1   yoffset=3    xadvance=6    page=0    chnl=0 
char id=109     x=0    y=37   width=19   height=12   xoffset=-1   yoffset=7    xadvance=17   page=0    chnl=0 
char id=110     x=495  y=21   width=13   height=12   xoffset=-1   yoffset=7    xadvance=11   page=0    chnl=0 
char id=111     x=383  y=21   width=12   height=13   xoffset=-1   yoffset=7    xadvance=10   page=0    chnl=0 
char id=112     x=296  y=0    width=13   height=17   xoffset=-1   yoffset=7    xadvance=11   page=0    chnl=0 
char id=113     x=309  y=0    width=13   height=17   xoffset=-1   yoffset=7    xadvance=11   page=0    chnl=0 
char id=114     x=19   y=37   width=11   height=12   xoffset=-1   yoffset=7    xadvance=9    page=0    chnl=0 
char id=115     x=395  y=21   width=10   height=13   xoffset=-1   yoffset=7    xadvance=8    page=0    chnl=0 
char id=116     x=299  y=21   width=9    height=16   xoffset=-1   yoffset=4    xadvance=7    page=0    chnl=0 
char id=117     x=405  y=21   width=13   height=13   xoffset=-1   yoffset=7    xadvance=11   page=0    chnl=0 
char id=118     x=418  y=21   width=12   height=13   xoffset=-1   yoffset=7    xadvance=10   page=0    chnl=0 
char id=119     x=430  y=21   width=17   height=13   xoffset=-1   yoffset=7    xadvance=14   page=0    chnl=0 
char id=120     x=30   y=37   width=12   height=12   xoffset=-1   yoffset=7    xadvance=10   page=0    chnl=0 
char id=121     x=322  y=0    width=12   height=17   xoffset=-1   yoffset=7    xadvance=10   page=0    chnl=0 
char id=122     x=42   y=37   width=11   height=12   xoffset=-1   yoffset=7    xadvance=9    page=0    chnl=0 
char id=123     x=25   y=0    width=9    height=21   xoffset=0    yoffset=3    xadvance=8    page=0    chnl=0 
char id=124     x=43   y=0    width=4    height=21   xoffset=0    yoffset=3    xadvance=4    page=0    chnl=0 
char id=125     x=34   y=0    width=9    height=21   xoffset=-1   yoffset=3    xadvance=8    page=0    chnl=0 
char id=126     x=127  y=37   width=13   height=6    xoffset=-1   yoffset=10   xadvance=10   page=0    chnl=0 
