info face="TimesNewRomanPS-ItalicMT" size=20 bold=0 italic=1 charset="" unicode=0 stretchH=100 smooth=1 aa=1 padding=1,1,1,1 spacing=-2,-2
common lineHeight=24 base=18 scaleW=512 scaleH=512 pages=1 packed=0
page id=0 file="NewTimesRoman_Italic_20.png"
chars count=96
char id=10      x=0    y=0    width=0    height=0    xoffset=-1   yoffset=0    xadvance=0    page=0    chnl=0 
char id=32      x=0    y=0    width=0    height=0    xoffset=-1   yoffset=0    xadvance=5    page=0    chnl=0 
char id=33      x=471  y=0    width=8    height=17   xoffset=0    yoffset=3    xadvance=7    page=0    chnl=0 
char id=34      x=143  y=38   width=11   height=9    xoffset=1    yoffset=3    xadvance=8    page=0    chnl=0 
char id=35      x=18   y=21   width=12   height=17   xoffset=0    yoffset=3    xadvance=10   page=0    chnl=0 
char id=36      x=154  y=0    width=12   height=19   xoffset=-1   yoffset=2    xadvance=10   page=0    chnl=0 
char id=37      x=0    y=21   width=18   height=17   xoffset=0    yoffset=3    xadvance=17   page=0    chnl=0 
char id=38      x=30   y=21   width=17   height=17   xoffset=-1   yoffset=3    xadvance=16   page=0    chnl=0 
char id=39      x=154  y=38   width=7    height=9    xoffset=1    yoffset=3    xadvance=4    page=0    chnl=0 
char id=40      x=39   y=0    width=11   height=21   xoffset=0    yoffset=3    xadvance=7    page=0    chnl=0 
char id=41      x=50   y=0    width=13   height=21   xoffset=-4   yoffset=3    xadvance=7    page=0    chnl=0 
char id=42      x=119  y=38   width=11   height=11   xoffset=1    yoffset=3    xadvance=10   page=0    chnl=0 
char id=43      x=450  y=21   width=14   height=13   xoffset=0    yoffset=5    xadvance=13   page=0    chnl=0 
char id=44      x=161  y=38   width=6    height=7    xoffset=-2   yoffset=15   xadvance=5    page=0    chnl=0 
char id=45      x=205  y=38   width=8    height=4    xoffset=-1   yoffset=12   xadvance=7    page=0    chnl=0 
char id=46      x=200  y=38   width=5    height=5    xoffset=-1   yoffset=15   xadvance=5    page=0    chnl=0 
char id=47      x=490  y=0    width=12   height=17   xoffset=-2   yoffset=3    xadvance=6    page=0    chnl=0 
char id=48      x=460  y=0    width=11   height=17   xoffset=0    yoffset=3    xadvance=10   page=0    chnl=0 
char id=49      x=386  y=21   width=10   height=16   xoffset=0    yoffset=3    xadvance=10   page=0    chnl=0 
char id=50      x=396  y=21   width=12   height=16   xoffset=-1   yoffset=3    xadvance=10   page=0    chnl=0 
char id=51      x=377  y=0    width=12   height=17   xoffset=-1   yoffset=3    xadvance=10   page=0    chnl=0 
char id=52      x=389  y=0    width=12   height=17   xoffset=-1   yoffset=3    xadvance=10   page=0    chnl=0 
char id=53      x=401  y=0    width=12   height=17   xoffset=-1   yoffset=3    xadvance=10   page=0    chnl=0 
char id=54      x=413  y=0    width=12   height=17   xoffset=0    yoffset=3    xadvance=10   page=0    chnl=0 
char id=55      x=425  y=0    width=11   height=17   xoffset=1    yoffset=3    xadvance=10   page=0    chnl=0 
char id=56      x=436  y=0    width=12   height=17   xoffset=-1   yoffset=3    xadvance=10   page=0    chnl=0 
char id=57      x=448  y=0    width=12   height=17   xoffset=-1   yoffset=3    xadvance=10   page=0    chnl=0 
char id=58      x=90   y=38   width=7    height=12   xoffset=0    yoffset=8    xadvance=7    page=0    chnl=0 
char id=59      x=416  y=21   width=8    height=14   xoffset=-1   yoffset=8    xadvance=7    page=0    chnl=0 
char id=60      x=424  y=21   width=13   height=13   xoffset=0    yoffset=5    xadvance=13   page=0    chnl=0 
char id=61      x=167  y=38   width=14   height=7    xoffset=0    yoffset=8    xadvance=13   page=0    chnl=0 
char id=62      x=437  y=21   width=13   height=13   xoffset=0    yoffset=5    xadvance=13   page=0    chnl=0 
char id=63      x=479  y=0    width=11   height=17   xoffset=0    yoffset=3    xadvance=10   page=0    chnl=0 
char id=64      x=91   y=0    width=20   height=21   xoffset=-1   yoffset=3    xadvance=18   page=0    chnl=0 
char id=65      x=47   y=21   width=14   height=16   xoffset=-2   yoffset=3    xadvance=12   page=0    chnl=0 
char id=66      x=61   y=21   width=15   height=16   xoffset=-2   yoffset=3    xadvance=12   page=0    chnl=0 
char id=67      x=166  y=0    width=17   height=17   xoffset=0    yoffset=3    xadvance=13   page=0    chnl=0 
char id=68      x=76   y=21   width=18   height=16   xoffset=-2   yoffset=3    xadvance=14   page=0    chnl=0 
char id=69      x=94   y=21   width=16   height=16   xoffset=-2   yoffset=3    xadvance=12   page=0    chnl=0 
char id=70      x=110  y=21   width=18   height=16   xoffset=-2   yoffset=3    xadvance=12   page=0    chnl=0 
char id=71      x=183  y=0    width=16   height=17   xoffset=0    yoffset=3    xadvance=14   page=0    chnl=0 
char id=72      x=128  y=21   width=22   height=16   xoffset=-2   yoffset=3    xadvance=14   page=0    chnl=0 
char id=73      x=150  y=21   width=13   height=16   xoffset=-2   yoffset=3    xadvance=7    page=0    chnl=0 
char id=74      x=199  y=0    width=15   height=17   xoffset=-2   yoffset=3    xadvance=9    page=0    chnl=0 
char id=75      x=163  y=21   width=19   height=16   xoffset=-2   yoffset=3    xadvance=13   page=0    chnl=0 
char id=76      x=182  y=21   width=14   height=16   xoffset=-2   yoffset=3    xadvance=11   page=0    chnl=0 
char id=77      x=196  y=21   width=23   height=16   xoffset=-2   yoffset=3    xadvance=17   page=0    chnl=0 
char id=78      x=214  y=0    width=21   height=17   xoffset=-2   yoffset=3    xadvance=13   page=0    chnl=0 
char id=79      x=235  y=0    width=16   height=17   xoffset=0    yoffset=3    xadvance=14   page=0    chnl=0 
char id=80      x=219  y=21   width=16   height=16   xoffset=-2   yoffset=3    xadvance=12   page=0    chnl=0 
char id=81      x=0    y=0    width=17   height=21   xoffset=-1   yoffset=3    xadvance=14   page=0    chnl=0 
char id=82      x=235  y=21   width=15   height=16   xoffset=-2   yoffset=3    xadvance=12   page=0    chnl=0 
char id=83      x=251  y=0    width=13   height=17   xoffset=-1   yoffset=3    xadvance=10   page=0    chnl=0 
char id=84      x=250  y=21   width=15   height=16   xoffset=0    yoffset=3    xadvance=11   page=0    chnl=0 
char id=85      x=264  y=0    width=19   height=17   xoffset=1    yoffset=3    xadvance=14   page=0    chnl=0 
char id=86      x=283  y=0    width=17   height=17   xoffset=1    yoffset=3    xadvance=12   page=0    chnl=0 
char id=87      x=300  y=0    width=20   height=17   xoffset=1    yoffset=3    xadvance=17   page=0    chnl=0 
char id=88      x=265  y=21   width=22   height=16   xoffset=-3   yoffset=3    xadvance=12   page=0    chnl=0 
char id=89      x=287  y=21   width=17   height=16   xoffset=0    yoffset=3    xadvance=11   page=0    chnl=0 
char id=90      x=304  y=21   width=17   height=16   xoffset=-2   yoffset=3    xadvance=11   page=0    chnl=0 
char id=91      x=126  y=0    width=13   height=20   xoffset=-1   yoffset=3    xadvance=8    page=0    chnl=0 
char id=92      x=502  y=0    width=5    height=17   xoffset=1    yoffset=3    xadvance=6    page=0    chnl=0 
char id=93      x=139  y=0    width=15   height=20   xoffset=-4   yoffset=3    xadvance=8    page=0    chnl=0 
char id=94      x=130  y=38   width=13   height=10   xoffset=-1   yoffset=3    xadvance=8    page=0    chnl=0 
char id=95      x=213  y=38   width=14   height=4    xoffset=-2   yoffset=20   xadvance=10   page=0    chnl=0 
char id=96      x=181  y=38   width=6    height=6    xoffset=2    yoffset=3    xadvance=7    page=0    chnl=0 
char id=97      x=464  y=21   width=12   height=12   xoffset=-1   yoffset=8    xadvance=10   page=0    chnl=0 
char id=98      x=320  y=0    width=12   height=17   xoffset=-1   yoffset=3    xadvance=10   page=0    chnl=0 
char id=99      x=476  y=21   width=11   height=12   xoffset=-1   yoffset=8    xadvance=9    page=0    chnl=0 
char id=100     x=332  y=0    width=13   height=17   xoffset=-1   yoffset=3    xadvance=10   page=0    chnl=0 
char id=101     x=487  y=21   width=11   height=12   xoffset=-1   yoffset=8    xadvance=9    page=0    chnl=0 
char id=102     x=17   y=0    width=22   height=21   xoffset=-5   yoffset=3    xadvance=6    page=0    chnl=0 
char id=103     x=321  y=21   width=14   height=16   xoffset=-2   yoffset=8    xadvance=10   page=0    chnl=0 
char id=104     x=345  y=0    width=12   height=17   xoffset=-1   yoffset=3    xadvance=10   page=0    chnl=0 
char id=105     x=335  y=21   width=8    height=16   xoffset=-1   yoffset=4    xadvance=6    page=0    chnl=0 
char id=106     x=111  y=0    width=15   height=20   xoffset=-5   yoffset=4    xadvance=6    page=0    chnl=0 
char id=107     x=357  y=0    width=12   height=17   xoffset=-1   yoffset=3    xadvance=9    page=0    chnl=0 
char id=108     x=369  y=0    width=8    height=17   xoffset=-1   yoffset=3    xadvance=6    page=0    chnl=0 
char id=109     x=0    y=38   width=16   height=12   xoffset=-1   yoffset=8    xadvance=14   page=0    chnl=0 
char id=110     x=498  y=21   width=12   height=12   xoffset=-1   yoffset=8    xadvance=10   page=0    chnl=0 
char id=111     x=16   y=38   width=12   height=12   xoffset=-1   yoffset=8    xadvance=10   page=0    chnl=0 
char id=112     x=343  y=21   width=17   height=16   xoffset=-4   yoffset=8    xadvance=10   page=0    chnl=0 
char id=113     x=360  y=21   width=12   height=16   xoffset=-1   yoffset=8    xadvance=10   page=0    chnl=0 
char id=114     x=97   y=38   width=11   height=11   xoffset=-1   yoffset=8    xadvance=8    page=0    chnl=0 
char id=115     x=28   y=38   width=11   height=12   xoffset=-2   yoffset=8    xadvance=8    page=0    chnl=0 
char id=116     x=408  y=21   width=8    height=15   xoffset=-1   yoffset=5    xadvance=6    page=0    chnl=0 
char id=117     x=39   y=38   width=12   height=12   xoffset=-1   yoffset=8    xadvance=10   page=0    chnl=0 
char id=118     x=51   y=38   width=11   height=12   xoffset=-1   yoffset=8    xadvance=9    page=0    chnl=0 
char id=119     x=62   y=38   width=16   height=12   xoffset=-1   yoffset=8    xadvance=13   page=0    chnl=0 
char id=120     x=78   y=38   width=12   height=12   xoffset=-2   yoffset=8    xadvance=9    page=0    chnl=0 
char id=121     x=372  y=21   width=14   height=16   xoffset=-3   yoffset=8    xadvance=9    page=0    chnl=0 
char id=122     x=108  y=38   width=11   height=11   xoffset=-2   yoffset=8    xadvance=8    page=0    chnl=0 
char id=123     x=63   y=0    width=12   height=21   xoffset=0    yoffset=3    xadvance=8    page=0    chnl=0 
char id=124     x=87   y=0    width=4    height=21   xoffset=1    yoffset=3    xadvance=5    page=0    chnl=0 
char id=125     x=75   y=0    width=12   height=21   xoffset=-3   yoffset=3    xadvance=8    page=0    chnl=0 
char id=126     x=187  y=38   width=13   height=6    xoffset=-1   yoffset=10   xadvance=11   page=0    chnl=0 
